…
# 越多越好——计算 n 个字母而不是单词

上一节中这种奇怪结果的原因可以追溯到上下文。请注意，评论 3 中有一个短语`No nonsense, no gimmicks`，它在很大程度上是正面的，但有两个负面的词与之相关。我们怎样才能把上下文考虑进去呢？输入 n-grams。n-gram 是来自给定文本或语音序列的 *n* 个连续项目(单词，或者在语音的情况下，音素)的序列。让我们用一个例子来说明这一点，并使用 2-grams 或 bigrams:

```
text_df <- data_frame(line = 1:4, text = text)
text_df <- text_df %>%
 unnest_tokens(bigram, text, token="ngrams", n=2)
text_df
```

这为我们提供了以下信息:

```
# A tibble: 70 x 2
 line bigram
 <int> <chr>
 1 1 the food
 2 1 food is
 3 1 is typical
 4 1 typical czech
 5 1 czech and
 6 1 and the
 7 1 the beer
 8 1 beer is
 9 1 is good
10 1 good the
# ... with 60 more rows
```

所以，我们现在看到连续的单词被放在一起。这已经足够有助于确定实际上是积极的消极词汇的否定，就像我们前面的综述 3。我们来看看哪些否定词被否定了。首先，我们将二元模型的两个词分成两列:

```
library(tidyr)
text_df <- text_df %>% separate(bigram, c("w1","w2"), sep=" ")
text_df
```

这给了我们:

```
# A tibble: 70 x 3
 line w1 w2
 * <int> <chr> <chr>
 1 1 the food
 2 1 food is
 3 1 is typical
 4 1 typical czech
 5 1 czech and
 6 1 and the
 7 1 the beer
 8 1 beer is
 9 1 is good
10 1 good the
# ... with 60 more rows
```
…
